id, name, username, password, mailing_address, mailing_city, mailing_state, mailing_country, mailing_zip, physical_address, physical_city, physical_state, physical_country, physical_zip, mobile, phone, phone_tollfree, fax, short_description, long_description, image, position, is_active, email_address, link, meta_name, urlname, meta_keyword, meta_description, date_added, from_front, lat, lng, facebook, twitter, youtube, contact_name, contact_email, contact_phone, is_deleted, is_approved, approved_date, last_login_ip, last_login_time, 
8, Hotel Robin Hood, , , , , , , , , , , , , , 709-489-5324, , , , <p><<>>	Hotel Robin Hood is located in a picturesque setting in the center of town. Visit our Web site to view what Hotel Robin Hood has to offer you. Coming Summer 2011 New Sherwood Suites! Visit our Web site to prebook.</p><<>><h2><<>>	Get in touch</h2><<>><p><<>>	<b>Email: </b> robin.hood [at] nf.sympatico.ca</p><<>><p><<>>	<b>Phone:</b> 709-489-5324</p><<>><p><<>>	<b>Fax:</b> 709-489-6191</p><<>>, laptop-computer61004638.jpg, 1, 1, , www.hotelrobinhood.com/index2.php, Hotel Robin Hood, hotel-robin-hood, Hotel Robin Hood, Hotel Robin Hood, 2011-12-20 15:23:37, 0, 48.934772, -55.662514, , , , , , , 0, 1, , , 
9, Carriage House Inn, , , , , , , , , , , , , , 709-489-7185, , , , <h2><<>>	Get in touch</h2><<>><p><<>>	<b>Email: </b> togina [at] nf.sympatico.ca</p><<>><p><<>>	<b>Phone:</b> 709-489-7185</p><<>><p><<>>	<b>Fax:</b> 7094891990</p><<>>, noimage.jpg, 2, 1, , www.carriagehouseinn.ca, Carriage House Inn, carriage-house-inn, Carriage House Inn, Carriage House Inn, 2011-12-20 15:23:37, 0, 48.951897, -55.617161, , , , , , , 0, 1, , , 
10, Highliner Country Inn, , , , , , , , , , , , , , 709-489-5639, , , , <h2><<>>	Get in touch</h2><<>><p><<>>	<b>Phone:</b> 709-489-5639</p><<>><p><<>>	<b>Fax:</b> 7094899609</p><<>>, noimage.jpg, 3, 1, , , Highliner Country Inn, highliner-country-inn, Highliner Country Inn, Highliner Country Inn, 2011-12-20 15:23:37, 0, 48.927673, -55.657227, , , , , , , 0, 1, , , 
11, Hill Road Manor Bed & Breakfast, , , , , , , , , , , , , , 709-489-5451, , , , <h2><<>>	Get in touch</h2><<>><p><<>>	<b>Email: </b> info [at] hillroadmanor.com</p><<>><p><<>>	<b>Phone:</b> 709-489-5451</p><<>><p><<>>	<b>Fax:</b> 7094895431</p><<>>, noimage.jpg, 4, 1, , www.hillroadmanor.com, Hill Road Manor Bed & Breakfast, hill-road-manor-bed---breakfast, Hill Road Manor Bed & Breakfast, Hill Road Manor Bed & Breakfast, 2011-12-20 15:23:37, 0, 48.929543, -55.662510, , , , , , , 0, 1, , , 
12, Mount Peyton Hotel , , , , , , , , , , , , , , 709-489-2251, , , , <p><<>>	Whether you&rsquo;re just passing through or simply finding it hard to leave. the Mount Peyton Hotel has what you&rsquo;re looking for. It is your home away from home! Located along both sides of the Trans Canada Highway. the Mount Peyton Hotel is located at the eastern entrance to Grand Falls-Windsor. Newfoundland and Labrador. Its offering of a full-service hotel. in addition to its motel and efficiency units right across the street. provides you with the best of both worlds. The Mount Peyton Hotel prides itself on years of experience in hospitality and cuisine. and its staff prides themselves on bringing their experience to you!</p><<>><h2><<>>	&nbsp;</h2><<>><h2><<>>	Get in touch</h2><<>><p><<>>	<b>Email: </b> mp-reservations.com</p><<>><p><<>>	<b>Phone:</b> 709-489-2251</p><<>><p><<>>	<b>Fax:</b> 709-489-6365</p><<>>, noimage.jpg, 5, 1, , www.mountpeyton.com, Mount Peyton Hotel , mount-peyton-hotel-, Mount Peyton Hotel , Mount Peyton Hotel , 2011-12-20 15:23:37, 0, 48.936039, -55.645958, , , , , , , 0, 1, , , 
13, Trailway Inn, , , , , , , , , , , , , , 709-489-6300, , , , <h2><<>>	Get in touch</h2><<>><p><<>>	<b>Email: </b> joshua [at] warp.nfld.net</p><<>><p><<>>	<b>Phone:</b> 709-489-6300</p><<>><p><<>>	<b>Fax:</b> 7094896489</p><<>>, noimage.jpg, 6, 1, , , Trailway Inn, trailway-inn, Trailway Inn, Trailway Inn, 2011-12-20 15:23:37, 0, 48.950283, -55.659737, , , , , , , 0, 1, , , 
14, Union Street Hostel, , , , , , , , , , , , , , 709-489-9447, , , , <h2><<>>	Get in touch</h2><<>><p><<>>	<b>Phone:</b> 709-489-9447</p><<>><p><<>>	<b>Fax:</b> 709-489-9347</p><<>>, noimage.jpg, 7, 1, , , Union Street Hostel, union-street-hostel, Union Street Hostel, Union Street Hostel, 2011-12-20 15:23:37, 0, 48.933811, -55.647259, , , , contact name, contact email, , 0, 1, 2013-05-24, , 
18, Classic Cue, , , , , , , , , , , , , , 709-489-7262, , , , , noimage.jpg, 11, 1, , , Classic Cue, classic-cue, Classic Cue, Classic Cue, 2011-12-20 15:23:37, 0, 0.000000, 0.000000, , , , , , , 0, 1, , , 
20, Double-S Lounge, , , , , , , , , , , , , , 709-489-8996, , , , , noimage.jpg, 13, 1, , , Double-S Lounge, double-s-lounge, Double-S Lounge, Double-S Lounge, 2011-12-20 15:23:37, 0, 48.947510, -55.641022, , , , , , , 0, 1, , , 
19, Club 63, , , , , , , , , , , , , , 7094896885, , , , , noimage.jpg, 12, 1, , , Club 63, club-63, Club 63, Club 63, 2011-12-20 15:23:37, 0, 48.938480, -55.664185, , , , , , , 0, 1, , , 
21, Jimi-Jaks T & C Pub & Inn, , , , , , , , , , , , , , 709-489-9602, , , , , noimage.jpg, 14, 1, , , Jimi-Jaks T & C Pub & Inn, jimi-jaks-t---c-pub---inn, Jimi-Jaks T & C Pub & Inn, Jimi-Jaks T & C Pub & Inn, 2011-12-20 15:23:37, 0, 48.928730, -55.659485, , , , , , , 0, 1, , , 
22, Mingles, , , , , , , , , , , , , , 709-489-4062, , , , , noimage.jpg, 15, 1, , , Mingles, mingles, Mingles, Mingles, 2011-12-20 15:23:37, 0, 48.933094, -55.653732, , , , , , , 0, 1, , , 
23, Classic Theater and Entertainment Center, , , , , , , , , , , , , , 489-0841, , , , <p><<>>	Facebook group: classictheater</p><<>>, noimage.jpg, 16, 1, , www.classictheater.ca , Classic Theater and Entertainment Center, classic-theater-and-entertainment-center, Classic Theater and Entertainment Center, Classic Theater and Entertainment Center, 2011-12-20 15:23:37, 0, 48.927624, -55.657608, , , , , , , 0, 1, , , 
24, Central Newfoundland Multicultural Society Inc., , , , , , , , , , , , , , , , , , <p><<>>	The Central Newfoundland Multicultural Society Inc. is an educational and social organization dedicated to welcoming and integrating our immigrant population into our town and its activities .Throughout the year. our organization has small social functions . an annual banquet . and a Canada Day Celebration for seniors so that our residents and community builders get to meet our new citizens .We are also the conduit for an annual post-secondary scholarship awarded by The Newfoundland Multicultural &amp; Folk Council of St. John&#39;s . NL. Our members often invite new immigrants to their homes and are in turn are open to personal invitations from our new immigrants.In short.we are people just like you who have a keen interest in meeting people from other cultures.If you wish to supply an e-mail address and a phone number for future contact .please send it to cbasmith@nl.rogers.com</p><<>><h2><<>>	Get in touch</h2><<>><p><<>>	<b>Email: </b> cbasmith [at] nl.rogers.com</p><<>>, noimage.jpg, 17, 1, , , Central Newfoundland Multicultural Society Inc., central-newfoundland-multicultural-society-inc., Central Newfoundland Multicultural Society Inc., Central Newfoundland Multicultural Society Inc., 2011-12-20 15:23:37, 0, 48.936943, -55.645000, , , , , , , 0, 1, , , 
25, A & R Trailer Repair Ltd., , , , , , , , , , , , , , , , , , <h2><<>>	Get in touch</h2><<>><p><<>>	<b>Fax:</b> 7094896311</p><<>>, noimage.jpg, 18, 1, , , A & R Trailer Repair Ltd., a---r-trailer-repair-ltd., A & R Trailer Repair Ltd., A & R Trailer Repair Ltd., 2011-12-20 15:23:37, 0, 48.933369, -55.641239, , , , , , , 0, 1, , , 
26, Airport Mazda, , , , , , , , , , , , , , 7094897802, , 3456789, , <p>Initial Content</p>, Hydrangeas87887573.jpg, 19, 1, rocky.developer002@gmail.com, www.google.com, Airport Mazda, airport-mazda, Airport Mazda, Airport Mazda, 2011-12-20 15:23:37, 0, 48.945896, -55.654152, , , , , , , 0, 1, , , 
27, Auto World, , , , , , , , , , , , , , 709-489-4605, , , , <h2><<>>	Get in touch</h2><<>><p><<>>	<b>Phone:</b> 709-489-4605</p><<>><p><<>>	<b>Fax:</b> 709-489-4636</p><<>>, noimage.jpg, 20, 1, , , Auto World, auto-world, Auto World, Auto World, 2011-12-20 15:23:37, 0, 48.952019, -55.642838, , , , , , , 0, 1, , , 
28, B & R Midtown Auto Body Ltd., , , , , , , , , , , , , , 7094898795, , , , , noimage.jpg, 21, 1, , , B & R Midtown Auto Body Ltd., b---r-midtown-auto-body-ltd., B & R Midtown Auto Body Ltd., B & R Midtown Auto Body Ltd., 2011-12-20 15:23:37, 0, 48.930931, -55.657665, , , , , , , 0, 1, , , 
29, Central Auto Glass, , , , , , , , , , , , , , 7094899362, , , , <h2><<>>	Get in touch</h2><<>><p><<>>	<b>Email: </b> central.auto [at] nf.aibn.com</p><<>><p><<>>	<b>Fax:</b> 7094899362</p><<>>, noimage.jpg, 22, 1, , , Central Auto Glass, central-auto-glass, Central Auto Glass, Central Auto Glass, 2011-12-20 15:23:37, 0, 48.949432, -55.645580, , , , , , , 0, 1, , , 
30, Centsible Car Sales, , , , , , , , , , , , , , 7094897163, , , , <h2><<>>	Get in touch</h2><<>><p><<>>	<b>Email: </b> jkeefe [at] centsible.nf.net</p><<>><p><<>>	<b>Fax:</b> 7094897163</p><<>>, noimage.jpg, 23, 1, , , Centsible Car Sales, centsible-car-sales, Centsible Car Sales, Centsible Car Sales, 2011-12-20 15:23:37, 0, 48.954105, -55.653969, , , , , , , 0, 1, , , 
31, Chaulk's Auto Repair, , , , , , , , , , , , , , 7094890054, , , , , noimage.jpg, 24, 1, , , Chaulk's Auto Repair, chaulk-s-auto-repair, Chaulk's Auto Repair, Chaulk's Auto Repair, 2011-12-20 15:23:37, 0, 48.952522, -55.672779, , , , , , , 0, 1, , , 
32, City Tire & Auto Centre Ltd., , , , , , , , , , , , , , 7094897683, , , , <h2><<>>	Get in touch</h2><<>><p><<>>	<b>Email: </b> cta [at] citytire.com</p><<>><p><<>>	<b>Fax:</b> 7094897683</p><<>>, noimage.jpg, 25, 1, , www.citytire.com, City Tire & Auto Centre Ltd., city-tire---auto-centre-ltd., City Tire & Auto Centre Ltd., City Tire & Auto Centre Ltd., 2011-12-20 15:23:37, 0, 48.954063, -55.653778, , , , , , , 0, 1, , , 
33, Delta Rent-A-Car, , , , , , , , , , , , , , 7094892976, , , , <p>Initial content</p>, noimage.jpg, 26, 1, , , Delta Rent-A-Car, delta-rent-a-car, Delta Rent-A-Car, Delta Rent-A-Car, 2011-12-20 15:23:37, 0, 48.927673, -55.657227, , , , , , , 0, 1, , , 
34, Exploits Suzuki, , , , , , , , , , , , , , 7094898208, , , , <h2><<>>	Get in touch</h2><<>><p><<>>	<b>Email: </b> cpower [at] nf.sympatico.ca</p><<>><p><<>>	<b>Fax:</b> 7094898208</p><<>>, noimage.jpg, 27, 1, , www.exploitssuzuki.com, Exploits Suzuki, exploits-suzuki, Exploits Suzuki, Exploits Suzuki, 2011-12-20 15:23:37, 0, 48.949432, -55.645580, , , , , , , 0, 1, , , 
35, Islander RV Sales and Rentals Ltd., , , , , , , , , , , , , , 709-489-9489, , , , , noimage.jpg, 28, 1, , www.islanderrv.com, Islander RV Sales and Rentals Ltd., islander-rv-sales-and-rentals-ltd., Islander RV Sales and Rentals Ltd., Islander RV Sales and Rentals Ltd., 2011-12-20 15:23:37, 0, 48.957153, -57.927380, , , , , , , 0, 1, , , 
36, McLennon's Auto Clinic & Used Auto Parts, , , , , , , , , , , , , , 7094898998, , , , , noimage.jpg, 29, 1, , , McLennon's Auto Clinic & Used Auto Parts, mclennon-s-auto-clinic---used-auto-parts, McLennon's Auto Clinic & Used Auto Parts, McLennon's Auto Clinic & Used Auto Parts, 2011-12-20 15:23:37, 0, 48.952522, -55.672779, , , , , , , 0, 1, , , 
37, P. & T. Auto Ltd., , , , , , , , , , , , , , 709-489-2282, , , , , noimage.jpg, 30, 1, , , P. & T. Auto Ltd., p.---t.-auto-ltd., P. & T. Auto Ltd., P. & T. Auto Ltd., 2011-12-20 15:23:37, 0, 48.950344, -55.630180, , , , , , , 0, 1, , , 
38, Parts for Trucks, , , , , , , , , , , , , , 7094898720, , , , , noimage.jpg, 31, 1, , , Parts for Trucks, parts-for-trucks, Parts for Trucks, Parts for Trucks, 2011-12-20 15:23:37, 0, 48.948219, -55.658966, , , , , , , 0, 1, , , 
39, Grand Toyota, , , , , , , , , , , , , , 709-489-4669, , , , <h2><<>>	Get in touch</h2><<>><p><<>>	<b>Email: </b> penney [at] toyota.ca</p><<>><p><<>>	<b>Phone:</b> 709-489-4669</p><<>><p><<>>	<b>Fax:</b> 709-489-6089</p><<>>, noimage.jpg, 32, 1, , www.penneytoyota.ca, Grand Toyota, grand-toyota, Grand Toyota, Grand Toyota, 2011-12-20 15:23:37, 0, 48.927673, -55.657227, , , , , , , 0, 1, , , 
40, Penny's Auto Body, , , , , , , , , , , , , , 709-258-5307, , , , , noimage.jpg, 33, 1, , , Penny's Auto Body, penny-s-auto-body, Penny's Auto Body, Penny's Auto Body, 2011-12-20 15:23:37, 0, 48.955811, -55.610065, , , , , , , 0, 1, , , 
41, Precision Collision, , , , , , , , , , , , , , , , , , <h2><<>>	Get in touch</h2><<>><p><<>>	<b>Email: </b> info [at] precisioncollisionauto.com</p><<>><p><<>>	<b>Fax:</b> 7094899386</p><<>>, noimage.jpg, 34, 1, , www.precisioncollisionauto.com, Precision Collision, precision-collision, Precision Collision, Precision Collision, 2011-12-20 15:23:37, 0, 48.948238, -55.658981, , , , , , , 0, 1, , , 
42, Rent-A-Wreck, , , , , , , , , , , , , , , , , , <h2><<>>	Get in touch</h2><<>><p><<>>	<b>Email: </b> pinder [at] centsible.nf.net</p><<>><p><<>>	<b>Fax:</b> 7094897163</p><<>>, noimage.jpg, 35, 1, , , Rent-A-Wreck, rent-a-wreck, Rent-A-Wreck, Rent-A-Wreck, 2011-12-20 15:23:37, 0, 48.954105, -55.653969, , , , , , , 0, 1, , , 
43, Sharron's Sales & Service, , , , , , , , , , , , , , 7094897824, , , , , noimage.jpg, 36, 1, , , Sharron's Sales & Service, sharron-s-sales---service, Sharron's Sales & Service, Sharron's Sales & Service, 2011-12-20 15:23:37, 0, 48.944302, -55.667702, , , , , , , 0, 1, , , 
44, Stroud's Auto Repair & Salvage, , , , , , , , , , , , , , 709-489-9296, , , , , noimage.jpg, 37, 1, , , Stroud's Auto Repair & Salvage, stroud-s-auto-repair---salvage, Stroud's Auto Repair & Salvage, Stroud's Auto Repair & Salvage, 2011-12-20 15:23:37, 0, 48.954781, -55.728497, , , , , , , 0, 1, , , 
45, Traction, , , , , , , , , , , , , , 7094896269, , , , , noimage.jpg, 38, 1, , , Traction, traction, Traction, Traction, 2011-12-20 15:23:37, 0, 48.952129, -55.662331, , , , , , , 0, 1, , , 
46, High Street Auto, , , , , , , , , , , , , , 709-489-4422, , , , , noimage.jpg, 39, 1, , , High Street Auto, high-street-auto, High Street Auto, High Street Auto, 2011-12-20 15:23:37, 0, 48.927570, -55.657009, , , , , , , 0, 1, , , 
47, Creative Learning Child Care Centre, , , , , , , , , , , , , , 709-489-1919, , , , <h2><<>>	Get in touch</h2><<>><p><<>>	<b>Email: </b> clcc [at] hotmail.com</p><<>><p><<>>	<b>Phone:</b> 709-489-1919</p><<>>, noimage.jpg, 40, 1, , , Creative Learning Child Care Centre, creative-learning-child-care-centre, Creative Learning Child Care Centre, Creative Learning Child Care Centre, 2011-12-20 15:23:37, 0, 48.952030, -55.644505, , , , , , , 0, 1, , , 
48, The Discovery Center - Child Care Services, , , , , , , , , , , , , , 709-489-0811, , , , <p><<>>	Full day &amp; Part Day Licensed Early Learning and Child Care Program 12 years operating in Grand Falls-Windsor</p><<>><h2><<>>	Get in touch</h2><<>><p><<>>	<b>Email: </b> karenb [at] nf.sympatico.ca</p><<>><p><<>>	<b>Phone:</b> 709-489-0811</p><<>><p><<>>	<b>Fax:</b> 709-489-8599</p><<>>, noimage.jpg, 41, 1, , , The Discovery Center - Child Care Services, the-discovery-center---child-care-services, The Discovery Center - Child Care Services, The Discovery Center - Child Care Services, 2011-12-20 15:23:37, 0, 0.000000, 0.000000, , , , , , , 0, 1, , , 
49, C.P.P. Holdings Inc., , , , , , , , , , , , , , (709) 489-6305, , , , , noimage.jpg, 42, 1, , , C.P.P. Holdings Inc., c.p.p.-holdings-inc., C.P.P. Holdings Inc., C.P.P. Holdings Inc., 2011-12-20 15:23:37, 0, 48.927586, -55.656483, , , , , , , 0, 1, , , 
50, E.W. Adams & Sons Limited, , , , , , , , , , , , , , 709-489-1980, , , , <p><<>>	Eric W. Adams. President &amp; Steve Adams. Vice President</p><<>><h2><<>>	&nbsp;</h2><<>><h2><<>>	Get in touch</h2><<>><p><<>>	<b>Email: </b> eadams [at] ewadams.com &amp; sadams [at] ewadams.com</p><<>><p><<>>	<b>Phone:</b> 709-489-1980</p><<>><p><<>>	<b>Fax:</b> 709-489-9438</p><<>>, noimage.jpg, 43, 1, , , E.W. Adams & Sons Limited, e.w.-adams---sons-limited, E.W. Adams & Sons Limited, E.W. Adams & Sons Limited, 2011-12-20 15:23:37, 0, 48.965370, -55.594357, , , , , , , 0, 1, , , 
51, Advantech Alarm Services, , , , , , , , , , , , , , 709-489-8990, , , , <h2><<>>	Get in touch</h2><<>><p><<>>	<b>Email: </b> computer.concepts [at] nfld.net</p><<>><p><<>>	<b>Phone:</b> 709-489-8990</p><<>><p><<>>	<b>Fax:</b> 709-489-9007</p><<>>, noimage.jpg, 44, 1, , , Advantech Alarm Services, advantech-alarm-services, Advantech Alarm Services, Advantech Alarm Services, 2011-12-20 15:23:37, 0, 48.950550, -55.644073, , , , , , , 0, 1, , , 
52, Arrow Enterprises, , , , , , , , , , , , , , 7094893462, , , , , noimage.jpg, 45, 1, , , Arrow Enterprises, arrow-enterprises, Arrow Enterprises, Arrow Enterprises, 2011-12-20 15:23:37, 0, 48.927673, -55.657227, , , , , , , 0, 1, , , 
53, Atlantic Explosives Ltd., , , , , , , , , , , , , , 7094894311, , , , , noimage.jpg, 46, 1, , , Atlantic Explosives Ltd., atlantic-explosives-ltd., Atlantic Explosives Ltd., Atlantic Explosives Ltd., 2011-12-20 15:23:37, 0, 48.927673, -55.657227, , , , , , , 0, 1, , , 
54, Barker's Fabrications, , , , , , , , , , , , , , 7084897200, , , , , noimage.jpg, 47, 1, , , Barker's Fabrications, barker-s-fabrications, Barker's Fabrications, Barker's Fabrications, 2011-12-20 15:23:37, 0, 48.947483, -55.660488, , , , , , , 0, 1, , , 
55, BlueBird Investments Ltd., , , , , , , , , , , , , , (709) 489-5403, , , , <p><<>>	General Contractors of Design/ Build Commercial Projects of Wood and Steel Construction. Also have Boom Truck Rentals. Backhoe Rentals. Concrete Pump Rentals.</p><<>><h2><<>>	Get in touch</h2><<>><p><<>>	<b>Email: </b> dave [at] bluebirdinvestments.ca</p><<>><p><<>>	<b>Phone:</b> (709) 489-5403</p><<>><p><<>>	<b>Fax:</b> (709) 489-4141</p><<>>, noimage.jpg, 48, 1, , , BlueBird Investments Ltd., bluebird-investments-ltd., BlueBird Investments Ltd., BlueBird Investments Ltd., 2011-12-20 15:23:37, 0, 48.927673, -55.657227, , , , , , , 0, 1, , , 
56, Central Contractors Ltd., , , , , , , , , , , , , , , , , , <p><<>>	<b>Fax:</b> 7094896764</p><<>>, noimage.jpg, 49, 1, , , Central Contractors Ltd., central-contractors-ltd., Central Contractors Ltd., Central Contractors Ltd., 2011-12-20 15:23:37, 0, 48.947868, -55.660103, , , , , , , 0, 1, , , 
57, D.A. Construction, , , , , , , , , , , , , , , , , , <p><<>>	<b>Fax:</b> 7094890666</p><<>>, noimage.jpg, 50, 0, , , D.A. Construction, d.a.-construction, D.A. Construction, D.A. Construction, 2011-12-20 15:23:37, 0, 48.950787, -55.624401, , , , , , , 0, 1, , , 
58, E.W. Adams & Sons Ltd., , , , , , , , , , , , , , 709-489-1980, , , , <p><<>>	Eric W. Adams. President &amp; Steve Adams. Vice President</p><<>><h2><<>>	&nbsp;</h2><<>><h2><<>>	Get in touch</h2><<>><p><<>>	<b>Email: </b> eadams [at] ewadams.com &amp; sadams [at] ewadams.com</p><<>><p><<>>	<b>Phone:</b> 709-489-1980</p><<>><p><<>>	<b>Fax:</b> 709-489-9438</p><<>>, noimage.jpg, 51, 1, , , E.W. Adams & Sons Ltd., e.w.-adams---sons-ltd., E.W. Adams & Sons Ltd., E.W. Adams & Sons Ltd., 2011-12-20 15:23:37, 0, 48.965370, -55.594357, , , , , , , 0, 1, , , 
59, Elliott Brothers, , , , , , , , , , , , , , , , , , <p><<>>	<b>Fax:</b> 7094890077</p><<>>, noimage.jpg, 52, 1, , , Elliott Brothers, elliott-brothers, Elliott Brothers, Elliott Brothers, 2011-12-20 15:23:37, 0, 48.970459, -55.587414, , , , , , , 0, 1, , , 
60, Gill's Construction Ltd., , , , , , , , , , , , , , , , , , <h2><<>>	Get in touch</h2><<>><p><<>>	<b>Email: </b> gillsconstructionltd [at] nl.rogers.com</p><<>><p><<>>	<b>Fax:</b> 7094897813</p><<>>, noimage.jpg, 53, 1, , , Gill's Construction Ltd., gill-s-construction-ltd., Gill's Construction Ltd., Gill's Construction Ltd., 2011-12-20 15:23:37, 0, 48.948055, -55.659542, , , , , , , 0, 1, , , 
61, Horwood's Ltd., , , , , , , , , , , , , , , , , , <p><<>>	<b>Fax:</b> 7094897502</p><<>>, noimage.jpg, 54, 0, , , Horwood's Ltd., horwood-s-ltd., Horwood's Ltd., Horwood's Ltd., 2011-12-20 15:23:37, 0, 48.955765, -55.610229, , , , , , , 0, 1, , , 
62, Hunt's Concrete Supplies Ltd., , , , , , , , , , , , , , , , , , <h3><<>>	Get in touch</h3><<>><p><<>>	<b>Email: </b> bhunt [at] huntsconcrete.com</p><<>><p><<>>	<b>Fax:</b> 7094899844</p><<>>, noimage.jpg, 55, 0, , , Hunt's Concrete Supplies Ltd., hunt-s-concrete-supplies-ltd., Hunt's Concrete Supplies Ltd., Hunt's Concrete Supplies Ltd., 2011-12-20 15:23:37, 0, 48.949635, -55.653175, , , , , , , 0, 1, , , 
63, KDJ Enterprises, , , , , , , , , , , , , , , , , , <p><<>>	<b>Fax:</b> 7094898492</p><<>>, noimage.jpg, 56, 0, , , KDJ Enterprises, kdj-enterprises, KDJ Enterprises, KDJ Enterprises, 2011-12-20 15:23:37, 0, 48.926105, -55.648449, , , , , , , 0, 1, , , 
64, Mulrooney's Construction Ltd., , , , , , , , , , , , , , , , , , <p><<>>	<b>Fax:</b> 7092567832</p><<>>, noimage.jpg, 57, 0, , , Mulrooney's Construction Ltd., mulrooney-s-construction-ltd., Mulrooney's Construction Ltd., Mulrooney's Construction Ltd., 2011-12-20 15:23:37, 0, 48.956001, -54.603294, , , , , , , 0, 1, , , 
65, Ontrac Equipment Services Inc., , , , , , , , , , , , , , , , , , <h2><<>>	Get in touch</h2><<>><p><<>>	<b>Email: </b> roy.greening [at] ontracinc.com</p><<>><p><<>>	<b>Fax:</b> 7094897243</p><<>>, noimage.jpg, 58, 0, , , Ontrac Equipment Services Inc., ontrac-equipment-services-inc., Ontrac Equipment Services Inc., Ontrac Equipment Services Inc., 2011-12-20 15:23:37, 0, 48.951717, -55.642731, , , , , , , 0, 1, , , 
66, Penney Paving/Penney Ready Mix, , , , , , , , , , , , , , , , , , <h2><<>>	Get in touch</h2><<>><p><<>>	<b>Email: </b> fjpenney [at] penneypaving.com</p><<>><p><<>>	<b>Fax:</b> 7094892857</p><<>>, noimage.jpg, 59, 0, , www.penneypaving.com, Penney Paving/Penney Ready Mix, penney-paving-penney-ready-mix, Penney Paving/Penney Ready Mix, Penney Paving/Penney Ready Mix, 2011-12-20 15:23:37, 0, 48.945316, -55.661179, , , , , , , 0, 1, , , 
67, Pollett's Electrical Services Ltd., , , , , , , , , , , , , , , , , , <p><<>>	<b>Fax:</b> 7094899449</p><<>>, noimage.jpg, 60, 0, , , Pollett's Electrical Services Ltd., pollett-s-electrical-services-ltd., Pollett's Electrical Services Ltd., Pollett's Electrical Services Ltd., 2011-12-20 15:23:37, 0, 48.927673, -55.657227, , , , , , , 0, 1, , , 
68, Reid Brothers Ltd., , , , , , , , , , , , , , 709-489-2897, , , , , noimage.jpg, 61, 0, , , Reid Brothers Ltd., reid-brothers-ltd., Reid Brothers Ltd., Reid Brothers Ltd., 2011-12-20 15:23:37, 0, 48.927673, -55.657227, , , , , , , 0, 1, , , 
69, TBN Construction Services Ltd., , , , , , , , , , , , , , , , , , <h2><<>>	Get in touch</h2><<>><p><<>>	<b>Email: </b> dave.ball [at] nf.sympatico.ca</p><<>><p><<>>	<b>Fax:</b> 7094892942</p><<>>, noimage.jpg, 62, 0, , , TBN Construction Services Ltd., tbn-construction-services-ltd., TBN Construction Services Ltd., TBN Construction Services Ltd., 2011-12-20 15:23:37, 0, 48.927570, -55.655407, , , , , , , 0, 1, , , 
70, Thompson's Electrical Contracting, , , , , , , , , , , , , , 709-489-8990, , , , <h3><<>>	Get in touch</h3><<>><p><<>>	<b>Email: </b> computer.concepts [at] nfld.net</p><<>><p><<>>	<b>Phone:</b> 709-489-8990</p><<>><p><<>>	<b>Fax:</b> 709-489-9007</p><<>>, noimage.jpg, 63, 0, , , Thompson's Electrical Contracting, thompson-s-electrical-contracting, Thompson's Electrical Contracting, Thompson's Electrical Contracting, 2011-12-20 15:23:37, 0, 48.950550, -55.644073, , , , , , , 0, 1, , , 
484, testing Business, , , , testing Business, , , , , , , , , , testing Business, , , , <p>Initial content</p>, Laptops-hppaviliondv6entertainmentpcsonomaredfrontleftopen96917724.jpg, 0, 1, , testing Business, testing Business, testing-business, testing Business, testing Business, 2012-02-25 19:34:12, 0, 0.000000, 0.000000, , , , , , , 0, 1, , , 
486, Paper Business, , , , city new, , , , , , , , , , 12345, , 123456, , ndustry. Lorem Ipsum has been the industry&#39;s standard dummy text ever since the 1500s. when an unknown printer took a galley of type and scrambled it to make a type specimen book. It has survived not only five centuries. but also the leap into electronic typesetting. remaining essentially unchanged. It was popularised in the 1960s with the release of Letraset sheets containing Lorem Ipsum passages. and more recently with desktop publishing software like Aldus PageMaker including versions of Lorem Ipsum., Hydrangeas - Copy91348266.jpg, 0, 0, rocky.developer002@gmail.com, www.google.com, Paper Business, paper-business, Paper Business, Paper Business, 2012-05-30 00:29:06, 1, 0.000000, 0.000000, , , , , , , 0, 1, , , 
487, Cloth Business, , , , city new, , , , , , , , , , 12345, , 123456, , ndustry. Lorem Ipsum has been the industry's standard dummy text ever since the 1500s. when an unknown printer took a galley of type and scrambled it to make a type specimen book. It has survived not only five centuries. but also the leap into electronic typesetting. remaining essentially unchanged. It was popularised in the 1960s with the release of Letraset sheets containing Lorem Ipsum passages. and more recently with desktop publishing software like Aldus PageMaker including versions of Lorem Ipsum., noimage.jpg, , 0, rocky.developer002@gmail.com, www.google.com, Cloth Business, cloth-business, Cloth Business, Cloth Business, 2012-05-30 00:36:13, 1, 0.000000, 0.000000, , , , , , , 0, 1, , , 
488, icecream Business, , , , city new, , , , , , , , , , 12345, , 123456, , ndustry. Lorem Ipsum has been the industry&#39;s standard dummy text ever since the 1500s. when an unknown printer took a galley of type and scrambled it to make a type specimen book. It has survived not only five centuries. but also the leap into electronic typesetting. remaining essentially unchanged. It was popularised in the 1960s with the release of Letraset sheets containing Lorem Ipsum passages. and more recently with desktop publishing software like Aldus PageMaker including versions of Lorem Ipsum., noimage.jpg, 0, 1, rocky.developer002@gmail.com, www.google.com, icecream Business, icecream-business, icecream Business, icecream Business, 2012-05-30 00:40:13, 1, 0.000000, 0.000000, , , , rocky, rocky.developer004@gmail.com, 1234567, 0, 1, , , 
489, check member, , , , mailing city, mailing state, mailing country, 54545, , physical city, physical state, , , , 484646, 46646, , shrt, lng, Tulips - Copy89114379.jpg, 1, 1, , , check member, check-member, check member, check member, 2013-05-24 18:31:48, 0, 0.000000, 0.000000, , , , , , , 0, 1, , , 
528, Abadak Wilderness Adventures, varun@cwebconsultants.com, /hGk1sn7Y1qDdXU07O1kdgepYAp+5dw7Yv0YZKMZKRc=, , , , , , , , , , , , , , , , , noimage.jpg, , 1, , , , , , , 2013-05-28 13:57:33, 0, 0.000000, 0.000000, , , , Ivan White, info@abadakwildernessadventures.ca, 709-649-0857, 0, 1, , , 
529, Adventure Quest Outfitters & Tours, gaurav@cwebconsultants.com, vfHCqILYxFEMUbDJLUh0QMfaBw3yrZAdiNsDWeg/nkU=, , , , , , , , , , , , , , , , , noimage.jpg, , 1, , , , , , , 2013-05-28 13:57:38, 0, 0.000000, 0.000000, , , , Murray Cruickshank, info@adventurequestoutfitters.com, 866-722-4868, 0, 1, , , 
530, Abadak Wilderness, anil@cwebconsultants.com, AQ60ia6G2PIjz6ttweyEqIcx40ept0g1LANQxj4Jgk4=, , , , , , , , , , , , , , , , , noimage.jpg, , 1, , , , , , , 2013-05-28 13:57:44, 0, 0.000000, 0.000000, , , , abadak, info@abadakwildernessadventures.ca, 895665656, 0, 1, , , 
